16-Bit-V2 DOCUMENTATION

============INSTRUCTION=============|----|----|----|----|----|----|----|----|=======HEX=======|
-FETCH                              |0000|0000|0010|0010|0000|0000|0000|0000|-----00220000----|
               			    |0000|0000|0000|0100|0100|1000|0000|0000|-----00044800----|
------------------------------------------------------------------------------------------------------
-NO OP         			    |0000|0000|0000|0000|0000|0000|0000|0000|-----00000000----|
               			    |0000|0000|0000|0000|0000|0000|0000|0000|-----00000000----|
------------------------------------------------------------------------------------------------------
-LD REG.       			    |0000|0000|0000|0000|0000|0100|0000|0100|-----00000404----|
Bits 8-23 DATA && 0-3 Dest.	    |0000|0000|0000|0000|0000|0000|0000|0000|-----00000000----|
------------------------------------------------------------------------------------------------------
-MOVE REG VALUE         	    |0000|0000|0000|0000|0000|0100|0000|0001|-----00000401----|
Bits 0-3(from), 4-7(to)             |0000|0000|0000|0000|0000|0000|0000|0000|-----00000000----|
------------------------------------------------------------------------------------------------------
-ALU ADD A+B       		    |0000|0000|0000|0000|0000|0100|0010|0110|-----00000426----|
Bits 20-23(A), 16-19(B), 0-3(Dest)  |0000|0000|0000|0000|0000|0000|0000|0000|-----00000000----|
------------------------------------------------------------------------------------------------------
-ALU SUB A-B       		    |0000|0000|0000|0000|0000|0100|0100|0110|-----00000446----|
Bits 19-21(A), 16-18(B), 0-3(Dest)  |0000|0000|0000|0000|0000|0000|0000|0000|-----00000000----|
------------------------------------------------------------------------------------------------------
-ALU MUL A*B       		    |0000|0000|0000|0000|0000|0100|0110|0110|-----00000466----|
Bits 19-21(A), 16-18(B), 0-3(Dest)  |0000|0000|0000|0000|0000|0000|0000|0000|-----00000000----|
------------------------------------------------------------------------------------------------------
-ALU DIV A/B       		    |0000|0000|0000|0000|0000|0100|1000|0110|-----00000486----|
Bits 19-21(A), 16-18(B), 0-3(Dest)  |0000|0000|0000|0000|0000|0000|0000|0000|-----00000000----|
------------------------------------------------------------------------------------------------------
-ALU NEGATE A     		    |0000|0000|0000|0000|0000|0100|1010|0110|-----000004a6----|
Bits 19-21(A), 0-3(Dest)  	    |0000|0000|0000|0000|0000|0000|0000|0000|-----00000000----|
------------------------------------------------------------------------------------------------------
-ALU SHIFT A LEFT BY B       	    |0000|0000|0000|0000|0000|0100|1100|0110|-----000004c6----|
Bits 19-21(A), 16-18(B), 0-3(Dest)  |0000|0000|0000|0000|0000|0000|0000|0000|-----00000000----|
------------------------------------------------------------------------------------------------------
-ALU INVERT A       		    |0000|0000|0000|0000|0000|0100|1110|0110|-----000004e6----|
Bits 19-21(A), 0-3(Dest)  	    |0000|0000|0000|0000|0000|0000|0000|0000|-----00000000----|
------------------------------------------------------------------------------------------------------
-ALU INVERT B       		    |0000|0000|0000|0000|0000|0101|0000|0110|-----00000506----|
Bits 16-18(B), 0-3(Dest)  	    |0000|0000|0000|0000|0000|0000|0000|0000|-----00000000----|
------------------------------------------------------------------------------------------------------
-ALU AND		      	    |0000|0000|0000|0000|0000|0101|0010|0110|-----00000526----|
Bits 19-21(A), 16-18(B), 0-3(Dest)  |0000|0000|0000|0000|0000|0000|0000|0000|-----00000000----|
------------------------------------------------------------------------------------------------------
-ALU NAND	      		    |0000|0000|0000|0000|0000|0101|0100|0110|-----00000546----|
Bits 19-21(A), 16-18(B), 0-3(Dest)  |0000|0000|0000|0000|0000|0000|0000|0000|-----00000000----|
------------------------------------------------------------------------------------------------------
-ALU OR 		      	    |0000|0000|0000|0000|0000|0101|0110|0110|-----00000566----|
Bits 19-21(A), 16-18(B), 0-3(Dest)  |0000|0000|0000|0000|0000|0000|0000|0000|-----00000000----|
------------------------------------------------------------------------------------------------------
-ALU NOR		      	    |0000|0000|0000|0000|0000|0101|1000|0110|-----00000586----|
Bits 19-21(A), 16-18(B), 0-3(Dest)  |0000|0000|0000|0000|0000|0000|0000|0000|-----00000000----|
------------------------------------------------------------------------------------------------------
-ALU XOR		      	    |0000|0000|0000|0000|0000|0101|1010|0110|-----000005a6----|
Bits 19-21(A), 16-18(B), 0-3(Dest)  |0000|0000|0000|0000|0000|0000|0000|0000|-----00000000----|
------------------------------------------------------------------------------------------------------
-ALU XNOR		      	    |0000|0000|0000|0000|0000|0101|1100|0110|-----000005e6----|
Bits 19-21(A), 16-18(B), 0-3(Dest)  |0000|0000|0000|0000|0000|0000|0000|0000|-----00000000----|
------------------------------------------------------------------------------------------------------
-JMP Unconditional         	    |0000|0010|0000|0001|0000|0100|0000|0000|-----02010400----|
0-15(Dest)      		    |0000|0000|0000|0000|0000|0000|0000|0000|-----00000000----|
------------------------------------------------------------------------------------------------------
-JMP A Equals B     		    |0000|0000|1000|0001|0000|0101|1110|0010|-----008105e2----|
Bits 19-21(A), 16-18(B), 0-15(Dest) |0000|0000|0000|0000|0000|0010|0000|0000|-----00000200----|
------------------------------------------------------------------------------------------------------
-JMP A Less Than B	            |0000|0001|0000|0001|0000|0101|1110|0010|-----010105e2----|
Bits 19-21(A), 16-18(B), 0-15(Dest) |0000|0000|0000|0000|0000|0010|0000|0000|-----00000200----|
------------------------------------------------------------------------------------------------------
-JMP A More Than B   		    |0000|0000|0100|0001|0000|0101|1110|0010|-----004105e2----|
Bits 19-21(A), 16-18(B), 0-15(Dest) |0000|0000|0000|0000|0000|0010|0000|0000|-----00000200----|
------------------------------------------------------------------------------------------------------
-RAM WRITE FROM REG A  		    |0000|0000|0000|0000|1001|0100|0001|0010|-----00009412----|
Bits 19-21(A), 0-15(Dest)           |0000|0000|0010|0010|0000|0000|0000|0000|-----00220000----|
------------------------------------------------------------------------------------------------------
-REG WRITE FROM RAM  		    |0000|0000|0000|0000|0101|0100|0000|0100|-----00005404----|
Bits 19-21(Reg), 0-15(RAM)          |0000|0000|0010|0010|0000|0000|0000|0000|-----00220000----|
------------------------------------------------------------------------------------------------------
-OUTPUT REG         		    |0000|0000|0000|1000|0000|0100|0001|0010|-----00080412----|
Bits 19-21(Reg) 		    |0000|0000|0000|0000|0000|0000|0000|0000|-----00000000----|
------------------------------------------------------------------------------------------------------
-SYSTEM HALT         		    |0000|0100|0000|0000|0000|0000|0000|0000|-----04000000----|
               			    |0000|0000|0000|0000|0000|0000|0000|0000|-----00000000----|
------------------------------------------------------------------------------------------------------
-NO OP         			    |0000|0000|0000|0000|0000|0000|0000|0000|
               			    |0000|0000|0000|0000|0000|0000|0000|0000|
------------------------------------------------------------------------------------------------------
-NO OP         			    |0000|0000|0000|0000|0000|0000|0000|0000|
               			    |0000|0000|0000|0000|0000|0000|0000|0000|
------------------------------------------------------------------------------------------------------
-NO OP         			    |0000|0000|0000|0000|0000|0000|0000|0000|
               			    |0000|0000|0000|0000|0000|0000|0000|0000|
-----------------------------------------------------------------------------
-NO OP         			    |0000|0000|0000|0000|0000|0000|0000|0000|
               			    |0000|0000|0000|0000|0000|0000|0000|0000|
-----------------------------------------------------------------------------
-NO OP         			    |0000|0000|0000|0000|0000|0000|0000|0000|
               			    |0000|0000|0000|0000|0000|0000|0000|0000|
-----------------------------------------------------------------------------
