v2.0 raw
01000000
1500feba
01000000
1500feb9
01000000
1500feb8
01000000
1500feb7
01000000
1500feba
01000100
1610feba
03010000
1500feba
01000100
1610feba
03010000
1500feba
01000100
1610feba
03010000
1500feba
01000100
1610feba
03010000
1500feba
01000100
1610feba
03010000
1500feba
01000100
1610feba
03010000
1500feba
01000100
1610feba
03010000
1500feba
01000100
1610feba
03010000
1500feba
01000100
1610feba
03010000
1500feba
01000100
1610feba
03010000
1500feba
01000000
1500feb9
01000100
1610feb9
03010000
1500feb9
01000100
1610feb9
03010000
1500feb9
01000100
1610feb9
03010000
1500feb9
01000100
1610feb9
03010000
1500feb9
01000000
1500feb8
1600feba
01000001
1201006c
01000000
1500feb7
1600feb9
01000001
1201005b
01000100
1610feb8
03010000
1500feb8
01000100
1610feb7
03010000
1500feb7
01000100
1610feb9
04100000
1500feb9
1100004b
1600feb7
01000001
12010067
01000100
1610feb9
03010000
1500feb9
01000100
1610feb7
04100000
1500feb7
1100005b
01000100
1610feba
04100000
1500feba
11000046
1600feb8
17000000
18000000
