v2.0 raw
11000001
01002000
1500c350
01ffff00
1500c351
1100001e
1610c351
15100008
15002710
01000100
04100001
1640c350
01ffff05
04540004
1314001a
1510c351
15700011
11002710
1600c351
01ffff01
12010018
01000101
03010000
1500c351
1570001a
11002710
01ffff00
17000000
18000000
01006400
01002207
11000006
0100c800
01002507
11000006
01002707
11000012
01006400
01002a07
11000006
1100001e
0100ff07
01000000
01000101
03010000
17000000
1207001e
1100002c
