v2.0 raw
0100ff00
1500c350
01ffff00
1500c351
1100001a
1610c351
15100007
15002710
01000100
04100001
1510c351
1570000c
11002710
1600c351
01000101
03010000
1500c351
15700012
11002710
1610c351
01000100
03100001
15100017
16002710
15700019
11002710
0104d200
01001d07
11000005
0100ff00
01002007
11000005
01002207
11000013
17000000
01002507
1100000d
18000000
